Begin job by input: CH5+.apmo, for user:   at  Fri Jul 29 01:56:57 CEST 2011
under operating system Linux fam19 2.6.38-8-generic #42-Ubuntu SMP Mon Apr 11 03:31:24 UTC 2011 x86_64 x86_64 x86_64 GNU/Linux

BEGIN INPUT INFO:
------------------------------------
%%%%%%%%%%%%%%%%%%%%%%%%%%%%%%%%%%%%%%%%%%%%%%%%%%%%%%%%%%%%%%%%%%%%
%  Calculo NEEMO de ion carbonio CH_5^+ - Estructura Cs(I) (eclipsada)
%       Bases empleadas:
%               electronica:    6-311++G(d,p)
%               nuclear:        TZSN
%       Autor: Sergio A. Gonzalez   GQT-UNAL/ GQC-UGTO Marzo/2009
%
%
%                        H(3)--H(4)
%                          \   /
%                           \ /
%                            C(1)----H(5)
%                           /  \\
%                          /    \\
%                         H(2)   H(6)
%%%%%%%%%%%%%%%%%%%%%%%%%%%%%%%%%%%%%%%%%%%%%%%%%%%%%%%%%%%%%%%%%%%%

SYSTEM_DESCRIPTION='Molecula de Metano Protonado Cs(I)'

GEOMETRY
     e-(C)  sto-3g   0.000000000    0.112793000    0.000000000  
     e-(H)  sto-3g  -1.109397000    0.086864000    0.000000000  addParticles=-1
     e-(H)  sto-3g  -0.253870000   -1.045099000    0.000000000
     e-(H)  sto-3g   0.714999000   -0.827396000    0.000000000
     e-(H)  sto-3g   0.324134000    0.554436000    0.939695000
     e-(H)  sto-3g   0.324134000    0.554436000   -0.939695000
     C       dirac   0.000000000    0.112793000    0.000000000  
     H_1      1s    -1.109397000    0.086864000    0.000000000
     H_1      1s    -0.253870000   -1.045099000    0.000000000
     H_1      1s     0.714999000   -0.827396000    0.000000000
     H_1      1s     0.324134000    0.554436000    0.939695000
     H_1      1s     0.324134000    0.554436000   -0.939695000
END GEOMETRY

TASKS
!        optimizeGeometry = T
        method = RHF
        mollerPlessetCorrection = 2
END TASKS

CONTROL
	diisSwitchThreshold=1E-4
	minimizationToleranceGradient = 1E-5
	scfInterspeciesMaximumIterations =10000 
END CONTROL

... END INPUT INFO


 Begin APMO execution at : Fri Jul 29 01:56:57 2011
 ---------------------------------------------------------------
 
 ***************************************************************
 *    APMO FORTRAN IMPLEMENTATION VERSION=1.5  January/2011    *
 ***************************************************************
 	GQT-UNIVERSIDAD NACIONAL DE COLOMBIA
  		S.A.GONZALEZ
  		N.F.AGUIRRE
  		E.F.POSADA (efposadac@unal.edu.co)
 ***************************************************************
 
 
 APMO IS RUNNING WITH NEXT PARAMETERS: 
 ------------------------------------
 
         METHOD TYPE:  RHF-MP2
         MOLLER PLESSET CORRECTION:             2
         SINGLE POINT CALCULATION
         NONELECTRONIC ENERGY TOLERANCE IN SCFs:     0.10000E-04
         NONELECTRONIC DENSITY MATRIX TOLERANCE IN SCFs:     0.50000E-03
         ELECTRONIC ENERGY TOLERANCE IN SCFs:     0.10000E-05
         ELECTRONIC DENSITY MATRIX TOLERANCE IN SCFs:     0.10000E-05
         TOTAL ENERGY TOLERANCE IN SCFs:     0.10000E-06
         SCF MAX. ITERATIONS - NONELECTRONICS :        10000
         SCF MAX. ITERATIONS - ELECTRONICS :        20000
         SCF MAX. ITERATIONS - INTERSPECIES :        10000
         CRITERIUM OF CONVERGENCE: density
         NONELECTRONIC DENSITY GUESS: ones
         ELECTRONIC DENSITY GUESS: hcore
         SCHEME OF ITERATION:            1
         EXTERNAL POTENTIAL: NONE
         METHOD OF SCF CONVERGENCE: DAMPING
 
  MOLECULAR SYSTEM: CH5+
 -----------------
 
    DESCRIPTION   : Molecula de Metano Protonado Cs[I]
    CHARGE        :   0.0
    PUNTUAL GROUP : undefined                     
 
 
  INFORMATION OF PARTICLES :
 =========================
         Total number of particles   =      17
         Number of quantum particles =      16
         Number of puntual charges   =       1
         Number of quantum species   =       2
         Number of molecular frags%  =       1
 
                 INFORMATION OF QUANTUM SPECIES 
      --------------------------------------------------------------
       ID       Symbol     mass     charge     spin     multiplicity
      --------------------------------------------------------------
         1     e-            1.0      -1.0      0.50      0.00
         2     H_1        1836.2       1.0      0.50      0.00
 
                   CONSTANTS OF COUPLING 
      -------------------------------------------------------
           Symbol     kappa      eta     lambda     ocupation
      -------------------------------------------------------
         e-           -1.0      2.00      2.00      5.00
         H_1          -1.0      1.00      1.00      5.00
 
                   BASIS SET FOR SPECIES 
      -------------------------------------------------------
           Symbol     N. Basis     N. Particles     Basis Set
      -------------------------------------------------------
         e-                  8               10         sto-3g
         H_1                 5                5             1s
 
                                ATOMIC BASIS
         ------------------------------------------------------------
          PRIMITIVE   SHELL             EXPONENT         COEFFICIENT 
         ------------------------------------------------------------
 
    BEGIN DESCRIPTION OF BASIS FOR:    e-
    ==============================
 
 
         e-[C] BASIS SET:        STO-3G*
             1         S               71.61683700          0.15432897
             2         S               13.04509600          0.53532814
             3         S                3.53051220          0.44463454
 
             1         S                2.94124940         -0.09996723
             2         S                0.68348310          0.39951283
             3         S                0.22228990          0.70011547
 
             1         P                2.94124940          0.15591627
             2         P                0.68348310          0.60768372
             3         P                0.22228990          0.39195739
 
 
         e-[H] BASIS SET:        STO-3G*
             1         S                3.42525091          0.15432897
             2         S                0.62391373          0.53532814
             3         S                0.16885540          0.44463454
 
 
         e-[H] BASIS SET:        STO-3G*
             1         S                3.42525091          0.15432897
             2         S                0.62391373          0.53532814
             3         S                0.16885540          0.44463454
 
 
         e-[H] BASIS SET:        STO-3G*
             1         S                3.42525091          0.15432897
             2         S                0.62391373          0.53532814
             3         S                0.16885540          0.44463454
 
 
         e-[H] BASIS SET:        STO-3G*
             1         S                3.42525091          0.15432897
             2         S                0.62391373          0.53532814
             3         S                0.16885540          0.44463454
 
 
         e-[H] BASIS SET:        STO-3G*
             1         S                3.42525091          0.15432897
             2         S                0.62391373          0.53532814
             3         S                0.16885540          0.44463454
 
    ... END DESCRIPTION OF BASIS
 
 
    BEGIN DESCRIPTION OF BASIS FOR:   H_1
    ==============================
 
 
           H_1 BASIS SET:             1s
             1         S               22.30000000          1.00000000
 
 
           H_1 BASIS SET:             1s
             1         S               22.30000000          1.00000000
 
 
           H_1 BASIS SET:             1s
             1         S               22.30000000          1.00000000
 
 
           H_1 BASIS SET:             1s
             1         S               22.30000000          1.00000000
 
 
           H_1 BASIS SET:             1s
             1         S               22.30000000          1.00000000
 
    ... END DESCRIPTION OF BASIS
 
 
  END INFORMATION OF PARTICLES
 
                       INITIAL GEOMETRY: AMSTRONG
                 -----------------------------------
                       <x>                 <y>                 <z>
        e-        0.0000000000        0.1127930000        0.0000000000
        e-       -1.1093970000        0.0868640000        0.0000000000
        e-       -0.2538700000       -1.0450990000        0.0000000000
        e-        0.7149990000       -0.8273960000        0.0000000000
        e-        0.3241340000        0.5544360000        0.9396950000
        e-        0.3241340000        0.5544360000       -0.9396950000
         C        0.0000000000        0.1127930000        0.0000000000
       H_1       -1.1093970000        0.0868640000        0.0000000000
       H_1       -0.2538700000       -1.0450990000        0.0000000000
       H_1        0.7149990000       -0.8273960000        0.0000000000
       H_1        0.3241340000        0.5544360000        0.9396950000
       H_1        0.3241340000        0.5544360000       -0.9396950000
  
 
           15.443221       0.227499       0.000000
            0.227499      13.613659       0.000000
            0.000000       0.000000      16.344800
 
 
      13.585795      15.471085      16.344800
 
 
            0.121572      -0.992583       0.000000
           -0.992583      -0.121572       0.000000
            0.000000       0.000000       1.000000
 
                      GEOMETRY IN C.M. : AMSTRONG
                 -----------------------------------
                       <x>                 <y>                 <z>
        e-        0.0000000000        0.0088701947        0.0724211127
        e-        0.0000000000       -1.0954501895        0.1815563762
        e-        0.0000000000       -0.3838843303       -1.0460187576
        e-        0.0000000000        0.6042648140       -0.9477181782
        e-        0.9396950000        0.3842915088        0.4713825474
        e-       -0.9396950000        0.3842915088        0.4713825474
         C        0.0000000000        0.0088701947        0.0724211127
       H_1        0.0000000000       -1.0954501895        0.1815563762
       H_1        0.0000000000       -0.3838843303       -1.0460187576
       H_1        0.0000000000        0.6042648140       -0.9477181782
       H_1        0.9396950000        0.3842915088        0.4713825474
       H_1       -0.9396950000        0.3842915088        0.4713825474
  
 
                     MATRIX OF DISTANCE: AMSTRONG
                 -----------------------------------
                          C(1)           H_1(2)         H_1(3)         H_1(4)         H_1(5)    
 
        C(1)             0.000000       1.109700       1.185396       1.181177       1.087722
        H_1(2)           1.109700       0.000000       1.418896       2.040660       1.776700
        H_1(3)           1.185396       1.418896       0.000000       0.993027       1.943097
        H_1(4)           1.181177       2.040660       0.993027       0.000000       1.716177
        H_1(5)           1.087722       1.776700       1.943097       1.716177       0.000000
        H_1(6)           1.087722       1.776700       1.943097       1.716177       1.879390
 
                          H_1(6)    
 
        C(1)             1.087722
        H_1(2)           1.776700
        H_1(3)           1.943097
        H_1(4)           1.716177
        H_1(5)           1.879390
        H_1(6)           0.000000
 
                   CHEMICAL BONDS: AMSTRONG
                   =======================
 
                       1:    1    2     1.10969997
                       2:    1    3     1.18539608
                       3:    1    4     1.18117692
                       4:    1    5     1.08772151
                       5:    1    6     1.08772151
 
                   ANGLES OF VALENCE: DEGREES
                   =========================
 
                       1:    2    1    3    76.29459090
                       2:    2    1    4   125.91353770
                       3:    2    1    5   107.90257027
                       4:    2    1    6   107.90257027
                       5:    3    1    4    49.61894680
                       6:    3    1    5   117.41451711
                       7:    3    1    6   117.41451711
                       8:    4    1    5    98.21009071
                       9:    4    1    6    98.21009071
                      10:    5    1    6   119.51726318

  ------------------------------------------
   LIBINT IS RUNNING WITH NEXT PARAMETERS: 
  ------------------------------------------
  work               ERIS
  maxAngularMoment    1
  numberOfPrimitives  35
  words of memory      1832

 
 RHF SCF CALCULATION: 
 ====================
 
 Begin Global SCF calculation:
 
 ---------------------------------------------------------
 Iteration      Energy            Energy Change
 ---------------------------------------------------------
    1      -39.7305657243       39.7305657243
    2      -39.7305657243        0.0000000000
 
 ...end Global SCF calculation
 
 END OF RHF SCF CALCULATION
 RULES FOR INDEX TRANSFORMATION
 ================================
 
 s =  1
 p =  1  2  3
 d =  1  4  5  2  6  3
 f =  1  4  5  6 10  8  2  7  9  3
 g =  1  4  5 10 13 11  6 14 15  8  2  7 12  9  3
 
 trans =  1  2  3  4  5  6  7  8  9 10
 Epn =    3.20378151352855     
 Ecn =   9.108719689142987E-002
 Saving density matrix ( CH5+.dens ) ...  OK
 Saving coefficients matrix ( CH5+.coeff ) ...  OK
 Saving overlap matrix ( CH5+.over ) ...  OK
 Saving kinetic matrix ( CH5+.kin ) ...  OK
 Saving coupling matrix ( CH5+.coup ) ...  OK
 Saving fixed interaction matrix ( CH5+.over ) ...  OK
 
 BEGIN FOUR-INDEX INTEGRALS TRANFORMATION:
 ========================================
 
 --------------------------------------------------
     Algorithm Four-index integral tranformation
       Yamamoto, Shigeyoshi; Nagashima, Umpei. 
   Computer Physics Communications, 2005, 166, 58-65
 --------------------------------------------------
 
         INTEGRALS TRANSFORMATION FOR: e-
 
              cpu-time  for transformation:   7.80E-02 (s)
 
         INTEGRALS TRANSFORMATION FOR: H_1
 
              cpu-time  for transformation:   3.33E-02 (s)
 
         INTER-SPECIES INTEGRALS TRANSFORMATION FOR: e-/H_1
 
              cpu-time  for transformation:   6.61E-02 (s)
 
 END FOUR-INDEX INTEGRALS TRANFORMATION
 
 
  EIGENVALUES AND EIGENVECTORS BY MOLECULAR SYSTEM: 
 =================================================
 
 
  Eigenvectors for: e-
 -----------------
 
                         -11.4034        -1.3306        -0.9300        -0.8870        -0.8733   
 
    1      C    S       -0.991757      -0.211247      -0.084117       0.016036       0.000000
    2      C    S       -0.038745       0.611668       0.304065      -0.057982       0.000000
    3      C   Px        0.000000       0.000000       0.000000       0.000000       0.651445
    4      C   Py        0.000559      -0.020901      -0.046784      -0.612131       0.000000
    5      C   Pz        0.002514      -0.119676       0.470735      -0.052666       0.000000
    6      H    S        0.006485       0.123838       0.167587       0.396400       0.000000
    7      H    S        0.004797       0.206749      -0.346509       0.156580       0.000000
    8      H    S        0.005169       0.188579      -0.335634      -0.211423       0.000000
    9      H    S        0.006613       0.102919       0.211127      -0.169355       0.348810
   10      H    S        0.006613       0.102919       0.211127      -0.169355      -0.348810
 
                           0.0736         0.1906         0.4063         0.4244         0.4404   
 
    1      C    S       -0.012695       0.139767       0.180503       0.000000       0.096777
    2      C    S        0.077726      -0.840006      -1.167973       0.000000      -0.631526
    3      C   Px        0.000000       0.000000       0.000000       1.093067       0.000000
    4      C   Py        0.127154      -0.048724       0.590090       0.000000      -0.939540
    5      C   Pz       -0.010902       0.990489      -0.418678       0.000000      -0.329388
    6      H    S        0.620920       0.124035       1.012095       0.000000      -0.427178
    7      H    S       -0.944281       0.644908       0.186766       0.000000      -0.498980
    8      H    S        0.823441       0.718312      -0.253280       0.000000       0.578406
    9      H    S       -0.309579       0.024200       0.510411      -0.908322       0.694491
   10      H    S       -0.309579       0.024200       0.510411       0.908322       0.694491
 
 
  end of eigenvectors 
 
  Eigenvectors for: H_1
 -----------------
 
                          -0.8654        -0.8654        -0.5460        -0.1162         0.0033   
 
    1    H_1    S        0.000000       0.000000       0.000000       1.000000       0.000000
    2    H_1    S        0.000000       0.000000       1.000000       0.000000       0.000000
    3    H_1    S        0.000000       0.000000       0.000000       0.000000      -1.000000
    4    H_1    S        1.000000       0.000000       0.000000       0.000000       0.000000
    5    H_1    S        0.000000       1.000000       0.000000       0.000000       0.000000
 
 
  end of eigenvectors 
 
  END OF EIGENVALUES AND EIGENVECTORS
 
 
  ENERGY COMPONENTS: 
 ==================
 
         TOTAL KINETIC ENERGY      =        39.4856523379
         TOTAL POTENTIAL ENERGY    =       -79.2162180622
                                           ________________
                      TOTAL ENERGY =     -39.730565724318
 
                VIRIAL RATIO (V/T) =         2.0062025919
 
  COMPONENTS OF KINETIC ENERGY: 
 -----------------------------
 
               e- Kinetic energy   =        39.3945651410
              H_1 Kinetic energy   =         0.0910871969
                                           ________________
              Total kinetic energy =        39.4856523379
 
  COMPONENTS OF POTENTIAL ENERGY: 
 -------------------------------
 
         Fixed potential energy    =         0.0000000000
         Q/Fixed potential energy  =       -85.0954362766
         Coupling energy           =       -23.5671962451
         Repulsion energy          =        29.4464144595
                                           ________________
            Total potential energy =       -79.2162180622
 
  Repulsion energy: 
 ------------------
 
           e-/e- Repulsion energy  =        26.2426329459
         H_1/H_1 Repulsion energy  =         3.2037815135
 
  Coupling energy: 
 ----------------
 
               e- Coupling energy  =       -23.5671962451
              H_1 Coupling energy  =       -23.5671962451
 
  Quantum/Fixed interaction energy: 
 -----------------------
 
         e-/Fixed interact. energy =       -99.1611692730
         H_1/Fixed interact. energy=        14.0657329964
 
  END ENERGY COMPONENTS
 
 
  POPULATION ANALYSES: 
 ====================
 
  Mulliken Population:
 ---------------------
 
     1      C    S       1.992104
     2      C    S       1.285597
     3      C   Px       1.216290
     4      C   Py       1.131706
     5      C   Pz       0.834522
     6      H    S       0.709598
     7      H    S       0.666058
     8      H    S       0.679786
     9      H    S       0.742169
    10      H    S       0.742169
                        __________
                Total =  10.000000
 
 ...end of Mulliken Population
 
  Lowdin Population:
 ---------------------
 
     1      C    S       1.986029
     2      C    S       1.041063
     3      C   Px       1.196593
     4      C   Py       1.129562
     5      C   Pz       0.853425
     6      H    S       0.770116
     7      H    S       0.686536
     8      H    S       0.706976
     9      H    S       0.814850
    10      H    S       0.814850
                        __________
                Total =  10.000000
 
 ...end of Lowdin Population
 
 END POPULATION ANALYSES 
 
 
  PARTIAL CHARGES: 
 ====================
 
  Mulliken Charges:
 ---------------------
 
                 C      -0.460218
               H_1       0.290402
               H_1       0.333942
               H_1       0.320214
               H_1       0.257831
               H_1       0.257831
 
  Lowdin Charges:
 ---------------------
 
                 C      -0.206672
               H_1       0.229884
               H_1       0.313464
               H_1       0.293024
               H_1       0.185150
               H_1       0.185150
 
 END PARTIAL CHARGES 
 
 
  ELECTROSTATIC MOMENTS:
 ======================
 
 DIPOLE: (DEBYE)
 ------
 
                       <Dx>     <Dy>     <Dz>      |D|
                 e-   0.0000  -0.0517  -0.0888
                H_1   0.0000  -0.5115  -4.1760
             Fixed    0.0000   0.2556   2.0871
                     ____________________________
             Total    0.0000  -0.3075  -2.1777   2.1993
 
 END ELECTROSTATIC MOMENTS
 
 
  POST HARTREE-FOCK CALCULATION
  MANY-BODY PERTURBATION THEORY:
 ==============================
 
         MOLLER-PLESSET FORMALISM 
          ORDER OF CORRECTION =     2
 
          E(0) + E(1) =  -3.973056572432E+01
                 E(2) =  -1.142353706338E+00
                        ____________________
                E(MP2)=  -4.08729194306558625E+01
 
         -----------------------------------
          E(n){ Specie }     E(n) / Hartree 
         -----------------------------------
 
         E(2){  e-    } =  -1.14235371E+00
         E(2){ H_1    } =   0.00000000E+00
 
         E(2){  e-/H_1} =   0.00000000E+00
 
Enlapsed Time :   3.93E-01 (s)
 APMO execution terminated normally at : Fri Jul 29 01:56:57 2011
