Begin job by input: H2O.apmo, for user:   at  Tue Jan 29 16:26:45 CET 2013
under operating system Linux trueno66 2.6.18-194.17.1.el5_lustre.1.8.5 #1 SMP Tue Nov 16 17:59:07 MST 2010 x86_64 x86_64 x86_64 GNU/Linux

BEGIN INPUT INFO:
------------------------------------
%%%%%%%%%%%%%%%%%%%%%%%%%%%%%%%%%%%%%%%%%%%%%%%%%
%  Calculo para molecula de agua
%       Base utilizada:
%               6-31++G** para electrones
%       Autor: Sergio A. Gonzalez - GQT-UNAL/2008
%%%%%%%%%%%%%%%%%%%%%%%%%%%%%%%%%%%%%%%%%%%%%%%%%

SYSTEM_DESCRIPTION='Molecula de H2O'

GEOMETRY
	e-(O)   sto-3g     0.000000      0.000000     -0.066575
	e-(H)   sto-3g     0.000000      0.754175      0.528381
	e-(H)   sto-3g     0.000000     -0.754174      0.528382
	O        dirac     0.000000      0.000000     -0.066575
	H_1      DZSNB     0.000000      0.754175      0.528381
	H_1      DZSNB     0.000000     -0.754174      0.528382  

END GEOMETRY

TASKS
!	optimizeGeometry = T
	method = RHF
	mollerPlessetCorrection = 2
END TASKS

CONTROL
	readCoefficients=F
END CONTROL





... END INPUT INFO


 Begin APMO execution at : Tue Jan 29 16:26:47 2013
 ---------------------------------------------------------------
 
 ***************************************************************
 *    APMO FORTRAN IMPLEMENTATION VERSION=1.5  January/2011    *
 ***************************************************************
 	GQT-UNIVERSIDAD NACIONAL DE COLOMBIA
  		S.A.GONZALEZ
  		N.F.AGUIRRE
  		E.F.POSADA (efposadac@unal.edu.co)
 ***************************************************************
 
Error, /home/iff/colciencias/.apmo/data/basis/dzsnb.xml: no such file or directory
